Social_Networks_Blog_Space - Data Cleaning, Exploration, and Network Analysis
…
[1] 815  13

# Perform semi-join to keep providers present in both datasets
providers_only_in_providers_df <- check_prov_enc %>%
  anti_join(check_prov, by = c("NAME" = "PROVIDER"))

# Print the dimensions of the filtered dataset
print(dim(providers_only_in_providers_df))

[1] 592  13

print(providers_only_in_providers_df)

# A tibble: 592 × 13
# Groups:   NAME, PROVIDER [592]
   PROVIDER ORGANIZATION NAME  GENDER SPECIALITY ADDRESS CITY  STATE ZIP     LAT
   <chr>    <chr>        <chr> <chr>  <chr>      <chr>   <chr> <chr> <chr> <dbl>
 1 47fdff5… 588f6ce6-b8… Tiff… Female GENERAL P… 461 WA… jama… MA    0213…  42.3
 2 b31700a… 324b4137-57… Herm… Female GENERAL P… 134 NO… nort… MA    0186…  42.6
 3 31214be… faffaf6a-ee… Jaun… Female GENERAL P… 66 WAS… stou… MA    0207…  42.1
 4 38a7cc6… 17a4bae5-8b… Olym… Female GENERAL P… 512 MA… shre… MA    0154…  42.3
 5 5b8e0a3… 4112b8b1-59… Ambr… Male   GENERAL P… 37 ROU… sand… MA    0256…  41.8
 6 5cb9747… e76b5eb0-0c… Gise… Female GENERAL P… 1400 V… west… MA    02132  42.3
 7 633f248… c241b977-41… Kip4… Male   GENERAL P… 94 MAI… hyan… MA    0260…  41.7
 8 4886d4a… ef5390b4-cb… Mila… Male   GENERAL P… 360 ME… mald… MA    0214…  42.4
 9 774bf03… 6fafb5d4-ec… Shel… Female GENERAL P… 320 WE… west… MA    02379  42.0
10 f4e1828… aa682136-a4… Ánge… Female GENERAL P… 501 CO… norw… MA    0206…  42.2
# ℹ 582 more rows
# ℹ 3 more variables: LON <dbl>, ENCOUNTERS <dbl>, PROCEDURES <dbl>
…
# A tibble: 2 × 2
  PROVIDER                             CITY      
  <chr>                                <chr>     
1 be12b8b5-2618-3d5e-a976-199d56505cd0 leominster
2 8e8ca291-3456-359b-9a13-0a6dc7016381 reading   

Ah Maynard.

# Find duplicate rows based on the NAME column
Maynard_rows <- encounters_cleaning %>% filter (PROVIDER == "Maynard46 Buckridge80")

# Print the duplicate rows
print(Maynard_rows %>% group_by(CITY.x)) %>% select(PROVIDER, CITY.x)

# A tibble: 22 × 51
# Groups:   CITY.x [1]
   ENCOUNTER_ID   START               STOP                PATIENT ORGANIZATION.x
   <chr>          <dttm>              <dttm>              <chr>   <chr>         
 1 a4e40cc3-e8e2… 1958-10-16 18:06:02 1958-10-16 18:51:39 Tommy8… 817f4acb-0184…
 2 64f7e2f4-4fef… 1960-10-27 18:06:02 1960-10-27 18:47:34 Tommy8… 817f4acb-0184…
 3 c194d751-9164… 1978-11-16 18:06:02 1978-11-16 18:49:04 Tommy8… 817f4acb-0184…
 4 8f814ff1-65a5… 1979-11-22 18:06:02 1979-11-22 18:47:03 Tommy8… 817f4acb-0184…
 5 d99e97ef-b857… 1981-12-03 18:06:02 1981-12-03 19:01:22 Tommy8… 817f4acb-0184…
 6 c3a214d7-4f71… 1982-12-09 18:06:02 1982-12-09 19:00:00 Tommy8… 817f4acb-0184…
 7 4a9f1c7b-574c… 1985-12-26 18:06:02 1985-12-26 18:51:22 Tommy8… 817f4acb-0184…
 8 e8e4f402-08a2… 1987-01-01 18:06:02 1987-01-01 18:46:31 Tommy8… 817f4acb-0184…
 9 24e91e6e-4ec8… 1989-01-12 18:06:02 1989-01-12 18:38:56 Tommy8… 817f4acb-0184…
10 83cc31e3-4efc… 1991-01-24 18:06:02 1991-01-24 19:02:22 Tommy8… 817f4acb-0184…
# ℹ 12 more rows
# ℹ 46 more variables: PROVIDER <chr>, PAYER <chr>, ENCOUNTERCLASS <chr>,
#   CODE <dbl>, DESCRIPTION <chr>, BASE_ENCOUNTER_COST <dbl>,
#   TOTAL_CLAIM_COST <dbl>, PAYER_COVERAGE <dbl>, REASONCODE <dbl>,
#   REASONDESCRIPTION <chr>, ORGANIZATION.y <chr>, GENDER.x <chr>,
#   SPECIALITY <chr>, ADDRESS.x <chr>, CITY.x <chr>, STATE.x <chr>,
#   ZIP.x <chr>, LAT.x <dbl>, LON.x <dbl>, ENCOUNTERS <dbl>, …

# A tibble: 22 × 2
# Groups:   CITY.x [1]
   PROVIDER              CITY.x 
   <chr>                 <chr>  
 1 Maynard46 Buckridge80 reading
 2 Maynard46 Buckridge80 reading
 3 Maynard46 Buckridge80 reading
 4 Maynard46 Buckridge80 reading
 5 Maynard46 Buckridge80 reading
 6 Maynard46 Buckridge80 reading
 7 Maynard46 Buckridge80 reading
 8 Maynard46 Buckridge80 reading
 9 Maynard46 Buckridge80 reading
10 Maynard46 Buckridge80 reading
# ℹ 12 more rows
…
