Social_Networks_Blog_Space - POST 7
…
# A tibble: 6 × 6
# Groups:   NAME [6]
  NAME                    GENDER RACE  CITY            LAT   LON
  <chr>                   <chr>  <chr> <chr>         <dbl> <dbl>
1 Dinorah501 Bechtelar572 Female white newton         42.3 -71.3
2 Cherise743 Prosacco716  Female white newton         42.3 -71.2
3 Rod343 Prosacco716      Male   white east sandwich  41.7 -70.4
4 Chaya236 Sporer811      Female asian fall river     41.6 -71.1
5 Leonel449 Witting912    Male   white lynn           42.5 -71.0
6 Rudy520 Hettinger594    Male   white yarmouth port  41.7 -70.3

pat_df_coords$type <- "PATIENT"
pat_attr

# A tibble: 86 × 9
   NAME                   GENDER RACE  MARITAL  CITY    INCOME   AGE type  block
   <chr>                  <chr>  <chr> <chr>    <chr>    <dbl> <dbl> <chr> <dbl>
 1 Annice210 Gleason633   Female white Married  brookl…   1565    37 PATI…     6
 2 Julianne852 Barrows492 Female white Widowed  hamilt…  39537    65 PATI…     6
 3 Alesha810 Heaney114    Female white Divorced framin… 114339    46 PATI…     6
 4 Sandee884 Rice937      Female white <NA>     taunton  96256    26 PATI…     6
 5 Mia349 Runte676        Female white Divorced chelms…  71238    44 PATI…     6
 6 Damian46 Dach178       Male   white <NA>     swansea  74155    26 PATI…     6
 7 Nelida367 Emard19      Female white Single   brookl… 501039    30 PATI…     4
 8 Anthony633 Kutch271    Male   asian <NA>     framin… 671128    26 PATI…     6
 9 Mose244 Cummerata161   Male   black Single   saugus  125860    46 PATI…     6
10 Shila857 Heller342     Female white <NA>     marion  134195    22 PATI…     2
# ℹ 76 more rows
…
