Social_Networks_Blog_Space - POST 6
…
$Block2
# A tibble: 1 × 3
  CITY.x    COUNT PERCENT
  <chr>     <int>   <dbl>
1 fitchburg   123     100

$Block3
# A tibble: 86 × 3
   CITY.x      COUNT PERCENT
   <chr>       <int>   <dbl>
 1 attleboro     182    6.52
 2 boston        152    5.45
 3 worcester     141    5.05
 4 new bedford   138    4.94
 5 northampton   129    4.62
 6 taunton       121    4.34
 7 weymouth      100    3.58
 8 melrose        91    3.26
 9 ware           90    3.22
10 framingham     80    2.87
# ℹ 76 more rows

$Block4
# A tibble: 3 × 3
  CITY.x     COUNT PERCENT
  <chr>      <int>   <dbl>
1 waltham      661   94.2 
2 auburndale    28    3.99
3 waban         13    1.85

$Block5
# A tibble: 23 × 3
   CITY.x         COUNT PERCENT
   <chr>          <int>   <dbl>
 1 peabody          742   34.2 
 2 leominster       309   14.2 
 3 hyannis          198    9.12
 4 attleboro        117    5.39
 5 stoneham         107    4.93
 6 middleton         88    4.06
 7 cambridge         70    3.23
 8 worcester         70    3.23
 9 fitchburg         68    3.13
10 south yarmouth    68    3.13
# ℹ 13 more rows
…
  return(block_df)
}

# Call the function for each block and store the results in a list
block_results <- lapply(1:6, function(block_num) {
  summarize_block(block_num, pro_attr, encounters_cleaned)
})

# View the summary data for each block
names(block_results) <- paste0("Block", 1:6)
print(block_results)

$Block1
# A tibble: 24 × 3
   DESCRIPTION                                                     COUNT PERCENT
   <chr>                                                           <int>   <dbl>
 1 Encounter for problem (procedure)                                  33   24.6 
 2 General examination of patient (procedure)                         32   23.9 
 3 Prenatal visit                                                      9    6.72
 4 Encounter for symptom                                               8    5.97
 5 Consultation for treatment                                          7    5.22
 6 Emergency room admission (procedure)                                6    4.48
 7 Urgent care clinic (environment)                                    5    3.73
 8 Administration of vaccine to produce active immunity (procedur…     4    2.99
 9 Encounter for check up                                              4    2.99
10 Patient encounter procedure                                         4    2.99
# ℹ 14 more rows
…
$Block3
# A tibble: 43 × 3
   DESCRIPTION                                                     COUNT PERCENT
   <chr>                                                           <int>   <dbl>
 1 General examination of patient (procedure)                        650   23.3 
 2 Encounter for problem (procedure)                                 506   18.1 
 3 Prenatal visit                                                    209    7.49
 4 Encounter for symptom                                             190    6.81
 5 Encounter for check up (procedure)                                188    6.74
 6 Emergency room admission (procedure)                              175    6.27
 7 Patient encounter procedure                                       154    5.52
 8 Consultation for treatment                                         93    3.33
 9 Administration of vaccine to produce active immunity (procedur…    70    2.51
10 Outpatient procedure                                               60    2.15
# ℹ 33 more rows

$Block4
# A tibble: 24 × 3
   DESCRIPTION                                COUNT PERCENT
   <chr>                                      <int>   <dbl>
 1 Encounter for problem (procedure)            363  51.7  
 2 Urgent care clinic (environment)             139  19.8  
 3 Encounter for check up (procedure)            74  10.5  
 4 General examination of patient (procedure)    26   3.70 
 5 Emergency room admission (procedure)          22   3.13 
 6 Patient encounter procedure                   21   2.99 
 7 Patient encounter procedure (procedure)       10   1.42 
 8 Prenatal visit                                 8   1.14 
 9 Encounter for symptom                          6   0.855
10 Consultation for treatment                     5   0.712
# ℹ 14 more rows

$Block5
# A tibble: 29 × 3
   DESCRIPTION                                COUNT PERCENT
   <chr>                                      <int>   <dbl>
 1 Encounter for problem (procedure)            915   42.2 
 2 Urgent care clinic (environment)             302   13.9 
 3 General examination of patient (procedure)   258   11.9 
 4 Encounter for check up (procedure)           252   11.6 
 5 Emergency room admission (procedure)          69    3.18
 6 Encounter for symptom                         59    2.72
 7 Follow-up encounter                           36    1.66
 8 Home visit (procedure)                        33    1.52
 9 Encounter for check up                        31    1.43
10 Encounter for problem                         30    1.38
# ℹ 19 more rows

$Block6
# A tibble: 22 × 3
   DESCRIPTION                                                     COUNT PERCENT
   <chr>                                                           <int>   <dbl>
 1 General examination of patient (procedure)                         46   24.3 
 2 Encounter for check up (procedure)                                 43   22.8 
 3 Encounter for problem (procedure)                                  25   13.2 
 4 Urgent care clinic (environment)                                   15    7.94
 5 Follow-up encounter                                                12    6.35
 6 Prenatal visit                                                      8    4.23
 7 Administration of vaccine to produce active immunity (procedur…     6    3.17
 8 Emergency room admission (procedure)                                6    3.17
 9 Encounter for symptom                                               6    3.17
10 Encounter for problem                                               5    2.65
# ℹ 12 more rows
…
$Block3
# A tibble: 37 × 3
     AGE COUNT PERCENT
   <dbl> <int>   <dbl>
 1    19    21   0.752
 2    22   144   5.16 
 3    24    51   1.83 
 4    26    67   2.40 
 5    27    19   0.681
 6    28    55   1.97 
 7    30    61   2.19 
 8    31   157   5.63 
 9    32   136   4.87 
10    33    69   2.47 
# ℹ 27 more rows

$Block4
# A tibble: 5 × 3
    AGE COUNT PERCENT
  <dbl> <int>   <dbl>
1    30     1   0.142
2    46     1   0.142
3    61   618  88.0  
4    66    72  10.3  
5    72    10   1.42 

$Block5
# A tibble: 25 × 3
     AGE COUNT PERCENT
   <dbl> <int>   <dbl>
 1    19     1  0.0461
 2    22     3  0.138 
 3    27     2  0.0922
 4    28     6  0.276 
 5    31    17  0.783 
 6    34     2  0.0922
 7    37    51  2.35  
 8    39     2  0.0922
 9    44     4  0.184 
10    45    16  0.737 
# ℹ 15 more rows
…
