Social_Networks_Blog_Space - Data Cleaning, Exploration, and Network Analysis
…
[1] 279  13

# Perform semi-join to keep providers present in both datasets
providers_only_in_providers_df <- check_prov2 %>%
  anti_join(check_prov, by = c("NAME" = "PROVIDER"))

# Print the dimensions of the filtered dataset
print(dim(providers_only_in_providers_df))

[1] 26 13

print(providers_only_in_providers_df)

# A tibble: 26 × 13
# Groups:   NAME, PROVIDER [26]
   PROVIDER ORGANIZATION NAME  GENDER SPECIALITY ADDRESS CITY  STATE ZIP     LAT
   <chr>    <chr>        <chr> <chr>  <chr>      <chr>   <chr> <chr> <chr> <dbl>
 1 c96d72f… 05bcaa3e-aa… Bok9… F      GENERAL P… 1 LOVE… SOUT… MA    0266…  41.7
 2 3527717… 8e3ca57f-6f… Conc… F      GENERAL P… 89 MOR… ANDO… MA    0181…  42.7
 3 8307628… 02c936e2-3a… Royc… F      GENERAL P… 120 FI… BOST… MA    0212…  42.3
 4 31b33e0… 7a3b8310-02… Leif… M      GENERAL P… 6 HATF… NORT… MA    0106…  42.3
 5 97c7e69… 68ea50ba-27… Alan… M      GENERAL P… 25 ARM… WEST… MA    0246…  42.4
 6 3d3b1f7… 65f0254a-73… Carl… F      GENERAL P… 720 BO… MARL… MA    0175…  42.4
 7 e0755f5… 27bf2e46-74… Kath… F      GENERAL P… 80 BOS… NORT… MA    0186…  42.6
 8 03c9650… 200746fc-5d… Latr… F      GENERAL P… 800 CU… WOBU… MA    0180…  42.5
 9 b622a6a… 9b1f8cd0-22… Clau… M      GENERAL P… 800 ES… LAWR… MA    0184…  42.7
10 bedab72… a609d72c-6c… Mega… F      GENERAL P… 1000 N… PITT… MA    0120…  42.5
# ℹ 16 more rows
# ℹ 3 more variables: LON <dbl>, ENCOUNTERS <dbl>, PROCEDURES <dbl>
…
